{
    "version": 1,
    "interactions": [
        {
            "request": {
                "method": "POST",
                "uri": "http://as.dev.rockarch.org:8089/users/admin/login?expiring=False",
                "body": null,
                "headers": {
                    "User-Agent": [
                        "ArchivesSnake/0.1"
                    ],
                    "Accept-Encoding": [
                        "gzip, deflate"
                    ],
                    "Accept": [
                        "application/json"
                    ],
                    "Connection": [
                        "keep-alive"
                    ],
                    "Content-Length": [
                        "0"
                    ]
                }
            },
            "response": {
                "status": {
                    "code": 200,
                    "message": "OK"
                },
                "headers": {
                    "Cache-Control": [
                        "private, must-revalidate, max-age=0"
                    ],
                    "X-Content-Type-Options": [
                        "nosniff"
                    ],
                    "Content-Length": [
                        "3936"
                    ],
                    "Server": [
                        "Jetty(8.1.5.v20120716)"
                    ],
                    "Date": [
                        "Wed, 15 Apr 2020 17:10:41 GMT"
                    ],
                    "Content-Type": [
                        "application/json"
                    ]
                },
                "body": {
                    "string": "{\"session\":\"fdb54d3a131c508cde47523b8518b8a2c136604d8743603c7a68f20b1e5f3a4a\",\"user\":{\"lock_version\":215272,\"username\":\"admin\",\"name\":\"Administrator\",\"is_system_user\":true,\"create_time\":\"2014-12-05T20:32:17Z\",\"system_mtime\":\"2020-04-15T17:10:41Z\",\"user_mtime\":\"2020-04-15T17:10:41Z\",\"jsonmodel_type\":\"user\",\"groups\":[],\"is_admin\":true,\"uri\":\"/users/1\",\"agent_record\":{\"ref\":\"/agents/people/1\"},\"permissions\":{\"/repositories/2\":[\"update_location_record\",\"delete_vocabulary_record\",\"update_subject_record\",\"delete_subject_record\",\"update_agent_record\",\"delete_agent_record\",\"update_vocabulary_record\",\"merge_subject_record\",\"merge_agent_record\",\"update_container_profile_record\",\"update_location_profile_record\",\"update_enumeration_record\",\"view_repository\",\"transfer_repository\",\"manage_repository\",\"update_accession_record\",\"update_resource_record\",\"update_digital_object_record\",\"update_event_record\",\"delete_event_record\",\"suppress_archival_record\",\"transfer_archival_record\",\"delete_archival_record\",\"view_suppressed\",\"update_classification_record\",\"delete_classification_record\",\"import_records\",\"cancel_importer_job\",\"manage_subject_record\",\"manage_agent_record\",\"manage_vocabulary_record\",\"merge_agents_and_subjects\",\"merge_archival_record\",\"manage_rde_templates\",\"update_container_record\",\"manage_container_record\",\"manage_container_profile_record\",\"manage_location_profile_record\",\"cancel_job\",\"create_job\"],\"/repositories/1\":[\"update_location_record\",\"delete_vocabulary_record\",\"update_subject_record\",\"delete_subject_record\",\"update_agent_record\",\"delete_agent_record\",\"update_vocabulary_record\",\"merge_subject_record\",\"merge_agent_record\",\"update_container_profile_record\",\"update_location_profile_record\",\"update_enumeration_record\",\"administer_system\",\"manage_users\",\"become_user\",\"view_all_records\",\"create_repository\",\"delete_repository\",\"transfer_repository\",\"index_system\",\"manage_repository\",\"update_accession_record\",\"update_resource_record\",\"update_digital_object_record\",\"update_event_record\",\"delete_event_record\",\"suppress_archival_record\",\"transfer_archival_record\",\"delete_archival_record\",\"view_suppressed\",\"view_repository\",\"update_classification_record\",\"delete_classification_record\",\"mediate_edits\",\"import_records\",\"cancel_importer_job\",\"manage_subject_record\",\"manage_agent_record\",\"manage_vocabulary_record\",\"merge_agents_and_subjects\",\"merge_archival_record\",\"manage_rde_templates\",\"update_container_record\",\"manage_container_record\",\"manage_container_profile_record\",\"manage_location_profile_record\",\"create_job\",\"cancel_job\",\"update_assessment_record\",\"delete_assessment_record\",\"manage_assessment_attributes\",\"manage_enumeration_record\"],\"_archivesspace\":[\"administer_system\",\"manage_users\",\"become_user\",\"view_all_records\",\"create_repository\",\"delete_repository\",\"transfer_repository\",\"index_system\",\"manage_repository\",\"update_accession_record\",\"update_resource_record\",\"update_digital_object_record\",\"update_event_record\",\"delete_event_record\",\"suppress_archival_record\",\"transfer_archival_record\",\"delete_archival_record\",\"view_suppressed\",\"view_repository\",\"update_classification_record\",\"delete_classification_record\",\"mediate_edits\",\"import_records\",\"cancel_importer_job\",\"manage_subject_record\",\"manage_agent_record\",\"manage_vocabulary_record\",\"merge_agents_and_subjects\",\"merge_archival_record\",\"manage_rde_templates\",\"update_container_record\",\"manage_container_record\",\"manage_container_profile_record\",\"manage_location_profile_record\",\"create_job\",\"cancel_job\",\"update_assessment_record\",\"delete_assessment_record\",\"manage_assessment_attributes\",\"manage_enumeration_record\",\"update_location_record\",\"delete_vocabulary_record\",\"update_subject_record\",\"delete_subject_record\",\"update_agent_record\",\"delete_agent_record\",\"update_vocabulary_record\",\"merge_subject_record\",\"merge_agent_record\",\"update_container_profile_record\",\"update_location_profile_record\",\"update_enumeration_record\"]}}}\n"
                }
            }
        },
        {
            "request": {
                "method": "GET",
                "uri": "http://as.dev.rockarch.org:8089/version",
                "body": null,
                "headers": {
                    "User-Agent": [
                        "ArchivesSnake/0.1"
                    ],
                    "Accept-Encoding": [
                        "gzip, deflate"
                    ],
                    "Accept": [
                        "application/json"
                    ],
                    "Connection": [
                        "keep-alive"
                    ]
                }
            },
            "response": {
                "status": {
                    "code": 200,
                    "message": "OK"
                },
                "headers": {
                    "Cache-Control": [
                        "private, must-revalidate, max-age=0"
                    ],
                    "X-Content-Type-Options": [
                        "nosniff"
                    ],
                    "X-XSS-Protection": [
                        "1; mode=block"
                    ],
                    "Content-Length": [
                        "22"
                    ],
                    "Server": [
                        "Jetty(8.1.5.v20120716)"
                    ],
                    "Date": [
                        "Wed, 15 Apr 2020 17:10:41 GMT"
                    ],
                    "Content-Type": [
                        "text/html;charset=UTF-8"
                    ],
                    "X-Frame-Options": [
                        "SAMEORIGIN"
                    ]
                },
                "body": {
                    "string": "ArchivesSpace (v2.6.0)"
                }
            }
        },
        {
            "request": {
                "method": "GET",
                "uri": "http://192.168.50.27:8000/status/health/",
                "body": null,
                "headers": {
                    "User-Agent": [
                        "ElectronBond/0.1"
                    ],
                    "Accept-Encoding": [
                        "gzip, deflate"
                    ],
                    "Accept": [
                        "application/json"
                    ],
                    "Connection": [
                        "keep-alive"
                    ]
                }
            },
            "response": {
                "status": {
                    "code": 200,
                    "message": "OK"
                },
                "headers": {
                    "Vary": [
                        "Origin"
                    ],
                    "Server": [
                        "gunicorn/20.0.4"
                    ],
                    "Content-Length": [
                        "85"
                    ],
                    "Date": [
                        "Wed, 15 Apr 2020 16:53:40 GMT"
                    ],
                    "Content-Type": [
                        "application/json"
                    ],
                    "Connection": [
                        "close"
                    ],
                    "X-Frame-Options": [
                        "SAMEORIGIN"
                    ]
                },
                "body": {
                    "string": "{\"ping\": {\"pong\": true}, \"databases\": {\"default\": true}, \"caches\": {\"default\": true}}"
                }
            }
        },
        {
            "request": {
                "method": "GET",
                "uri": "http://192.168.50.27:8000/api/delete-feed/?deleted_since=0",
                "body": null,
                "headers": {
                    "User-Agent": [
                        "ElectronBond/0.1"
                    ],
                    "Accept-Encoding": [
                        "gzip, deflate"
                    ],
                    "Accept": [
                        "application/json"
                    ],
                    "Connection": [
                        "keep-alive"
                    ]
                }
            },
            "response": {
                "status": {
                    "code": 200,
                    "message": "OK"
                },
                "headers": {
                    "Vary": [
                        "Accept, Cookie, Origin"
                    ],
                    "Allow": [
                        "GET, HEAD, OPTIONS"
                    ],
                    "Server": [
                        "gunicorn/20.0.4"
                    ],
                    "Content-Length": [
                        "7742"
                    ],
                    "Date": [
                        "Wed, 15 Apr 2020 16:54:22 GMT"
                    ],
                    "Content-Type": [
                        "application/json"
                    ],
                    "Connection": [
                        "close"
                    ],
                    "X-Frame-Options": [
                        "SAMEORIGIN"
                    ]
                },
                "body": {
                    "string": "{\"count\":588,\"next\":\"http://192.168.50.27:8000/api/delete-feed/?deleted_since=0&limit=100&offset=100\",\"previous\":null,\"results\":[{\"ref\":\"/api/components/1644/\",\"archivesspace_uri\":\"/repositories/2/resources/1644/\",\"deleted\":\"2020-04-10T15:59:57.992496-04:00\"},{\"ref\":\"/api/maps/25/\",\"deleted\":\"2020-04-10T15:52:43.414561-04:00\"},{\"ref\":\"/api/components/1640/\",\"deleted\":\"2020-04-10T15:52:43.405198-04:00\"},{\"ref\":\"/api/components/1639/\",\"deleted\":\"2020-04-10T15:52:43.395813-04:00\"},{\"ref\":\"/api/components/1638/\",\"archivesspace_uri\":\"/repositories/2/resources/1644/\",\"deleted\":\"2020-04-10T15:52:43.386376-04:00\"},{\"ref\":\"/api/components/1637/\",\"deleted\":\"2020-04-10T15:52:43.377056-04:00\"},{\"ref\":\"/api/components/1636/\",\"deleted\":\"2020-04-10T15:52:43.365950-04:00\"},{\"ref\":\"/api/components/1635/\",\"deleted\":\"2020-04-10T15:42:51.407192-04:00\"},{\"ref\":\"/api/components/1634/\",\"deleted\":\"2020-04-10T15:42:35.925144-04:00\"},{\"ref\":\"/api/components/1633/\",\"deleted\":\"2020-04-10T15:40:20.843267-04:00\"},{\"ref\":\"/api/maps/24/\",\"deleted\":\"2020-04-10T15:39:40.574685-04:00\"},{\"ref\":\"/api/components/1632/\",\"deleted\":\"2020-04-10T15:39:40.566444-04:00\"},{\"ref\":\"/api/components/1631/\",\"deleted\":\"2020-04-10T15:39:40.558233-04:00\"},{\"ref\":\"/api/components/1630/\",\"deleted\":\"2020-04-10T15:39:40.549787-04:00\"},{\"ref\":\"/api/components/1629/\",\"deleted\":\"2020-04-10T15:39:40.540575-04:00\"},{\"ref\":\"/api/components/1628/\",\"archivesspace_uri\":\"/repositories/2/resources/1644/\",\"deleted\":\"2020-04-10T15:39:40.531826-04:00\"},{\"ref\":\"/api/components/1627/\",\"deleted\":\"2020-04-10T15:39:40.523643-04:00\"},{\"ref\":\"/api/components/1626/\",\"deleted\":\"2020-04-10T15:39:40.514667-04:00\"},{\"ref\":\"/api/components/1625/\",\"deleted\":\"2020-04-10T15:39:40.506346-04:00\"},{\"ref\":\"/api/components/1624/\",\"deleted\":\"2020-04-10T15:39:40.497929-04:00\"},{\"ref\":\"/api/components/1623/\",\"deleted\":\"2020-04-10T15:39:40.486896-04:00\"},{\"ref\":\"/api/maps/23/\",\"deleted\":\"2020-04-10T15:21:55.224507-04:00\"},{\"ref\":\"/api/components/1622/\",\"deleted\":\"2020-04-10T15:21:55.215944-04:00\"},{\"ref\":\"/api/components/1621/\",\"deleted\":\"2020-04-10T15:21:55.207816-04:00\"},{\"ref\":\"/api/components/1620/\",\"deleted\":\"2020-04-10T15:21:55.199532-04:00\"},{\"ref\":\"/api/components/1619/\",\"deleted\":\"2020-04-10T15:21:55.191278-04:00\"},{\"ref\":\"/api/components/1618/\",\"deleted\":\"2020-04-10T15:21:55.181357-04:00\"},{\"ref\":\"/api/components/1617/\",\"deleted\":\"2020-04-10T15:21:55.173009-04:00\"},{\"ref\":\"/api/components/1616/\",\"deleted\":\"2020-04-10T15:21:55.164498-04:00\"},{\"ref\":\"/api/components/1615/\",\"deleted\":\"2020-04-10T15:21:55.156315-04:00\"},{\"ref\":\"/api/components/1614/\",\"deleted\":\"2020-04-10T15:21:55.147906-04:00\"},{\"ref\":\"/api/components/1613/\",\"deleted\":\"2020-04-10T15:21:55.139503-04:00\"},{\"ref\":\"/api/components/1612/\",\"archivesspace_uri\":\"/repositories/2/resources/1644/\",\"deleted\":\"2020-04-10T15:21:55.130588-04:00\"},{\"ref\":\"/api/components/1611/\",\"deleted\":\"2020-04-10T15:21:55.121147-04:00\"},{\"ref\":\"/api/components/1610/\",\"deleted\":\"2020-04-10T15:21:55.109946-04:00\"},{\"ref\":\"/api/maps/22/\",\"deleted\":\"2020-04-10T15:19:33.212135-04:00\"},{\"ref\":\"/api/components/1609/\",\"deleted\":\"2020-04-10T15:19:33.204310-04:00\"},{\"ref\":\"/api/components/1608/\",\"deleted\":\"2020-04-10T15:19:33.196579-04:00\"},{\"ref\":\"/api/components/1607/\",\"deleted\":\"2020-04-10T15:19:33.186675-04:00\"},{\"ref\":\"/api/components/1606/\",\"deleted\":\"2020-04-10T15:19:33.179173-04:00\"},{\"ref\":\"/api/components/1605/\",\"deleted\":\"2020-04-10T15:19:33.171617-04:00\"},{\"ref\":\"/api/components/1604/\",\"deleted\":\"2020-04-10T15:19:33.164049-04:00\"},{\"ref\":\"/api/components/1603/\",\"deleted\":\"2020-04-10T15:19:33.156363-04:00\"},{\"ref\":\"/api/components/1602/\",\"archivesspace_uri\":\"/repositories/2/resources/1644/\",\"deleted\":\"2020-04-10T15:19:33.148782-04:00\"},{\"ref\":\"/api/components/1601/\",\"deleted\":\"2020-04-10T15:19:33.141138-04:00\"},{\"ref\":\"/api/components/1600/\",\"deleted\":\"2020-04-10T15:19:33.133507-04:00\"},{\"ref\":\"/api/components/1599/\",\"deleted\":\"2020-04-10T15:19:33.125553-04:00\"},{\"ref\":\"/api/components/1598/\",\"deleted\":\"2020-04-10T15:19:33.117315-04:00\"},{\"ref\":\"/api/components/1597/\",\"deleted\":\"2020-04-10T15:19:33.107504-04:00\"},{\"ref\":\"/api/maps/21/\",\"deleted\":\"2020-04-10T15:15:13.862526-04:00\"},{\"ref\":\"/api/components/1596/\",\"deleted\":\"2020-04-10T15:15:13.854328-04:00\"},{\"ref\":\"/api/components/1595/\",\"deleted\":\"2020-04-10T15:15:13.846421-04:00\"},{\"ref\":\"/api/components/1594/\",\"deleted\":\"2020-04-10T15:15:13.838081-04:00\"},{\"ref\":\"/api/components/1593/\",\"deleted\":\"2020-04-10T15:15:13.829562-04:00\"},{\"ref\":\"/api/components/1592/\",\"deleted\":\"2020-04-10T15:15:13.818005-04:00\"},{\"ref\":\"/api/maps/20/\",\"deleted\":\"2020-04-10T15:14:09.769818-04:00\"},{\"ref\":\"/api/components/1591/\",\"deleted\":\"2020-04-10T15:14:09.761451-04:00\"},{\"ref\":\"/api/components/1590/\",\"deleted\":\"2020-04-10T15:14:09.753182-04:00\"},{\"ref\":\"/api/components/1589/\",\"deleted\":\"2020-04-10T15:14:09.744828-04:00\"},{\"ref\":\"/api/components/1588/\",\"archivesspace_uri\":\"/repositories/2/resources/1644/\",\"deleted\":\"2020-04-10T15:14:09.735839-04:00\"},{\"ref\":\"/api/components/1587/\",\"deleted\":\"2020-04-10T15:14:09.725000-04:00\"},{\"ref\":\"/api/maps/19/\",\"deleted\":\"2020-04-10T15:13:13.566410-04:00\"},{\"ref\":\"/api/components/1586/\",\"deleted\":\"2020-04-10T15:13:13.557893-04:00\"},{\"ref\":\"/api/components/1585/\",\"deleted\":\"2020-04-10T15:13:13.549507-04:00\"},{\"ref\":\"/api/components/1584/\",\"deleted\":\"2020-04-10T15:13:13.540772-04:00\"},{\"ref\":\"/api/components/1583/\",\"deleted\":\"2020-04-10T15:13:13.531801-04:00\"},{\"ref\":\"/api/components/1582/\",\"deleted\":\"2020-04-10T15:13:13.523168-04:00\"},{\"ref\":\"/api/components/1581/\",\"deleted\":\"2020-04-10T15:13:13.513985-04:00\"},{\"ref\":\"/api/components/1580/\",\"deleted\":\"2020-04-10T15:13:13.504490-04:00\"},{\"ref\":\"/api/components/1579/\",\"deleted\":\"2020-04-10T15:13:13.495348-04:00\"},{\"ref\":\"/api/components/1578/\",\"deleted\":\"2020-04-10T15:13:13.486139-04:00\"},{\"ref\":\"/api/components/1577/\",\"deleted\":\"2020-04-10T15:13:13.474851-04:00\"},{\"ref\":\"/api/maps/17/\",\"deleted\":\"2020-04-10T15:11:41.593374-04:00\"},{\"ref\":\"/api/components/1570/\",\"deleted\":\"2020-04-10T15:11:41.584616-04:00\"},{\"ref\":\"/api/components/1569/\",\"deleted\":\"2020-04-10T15:11:41.575839-04:00\"},{\"ref\":\"/api/components/1568/\",\"deleted\":\"2020-04-10T15:11:41.565376-04:00\"},{\"ref\":\"/api/maps/18/\",\"deleted\":\"2020-04-10T15:11:39.458109-04:00\"},{\"ref\":\"/api/components/1576/\",\"deleted\":\"2020-04-10T15:11:39.449322-04:00\"},{\"ref\":\"/api/components/1575/\",\"deleted\":\"2020-04-10T15:11:39.440471-04:00\"},{\"ref\":\"/api/components/1574/\",\"deleted\":\"2020-04-10T15:11:39.431290-04:00\"},{\"ref\":\"/api/components/1573/\",\"deleted\":\"2020-04-10T15:11:39.422263-04:00\"},{\"ref\":\"/api/components/1572/\",\"deleted\":\"2020-04-10T15:11:39.413596-04:00\"},{\"ref\":\"/api/components/1571/\",\"deleted\":\"2020-04-10T15:11:39.402854-04:00\"},{\"ref\":\"/api/maps/16/\",\"deleted\":\"2020-04-10T15:06:44.062188-04:00\"},{\"ref\":\"/api/components/1567/\",\"deleted\":\"2020-04-10T15:06:44.053442-04:00\"},{\"ref\":\"/api/components/1566/\",\"deleted\":\"2020-04-10T15:06:44.042749-04:00\"},{\"ref\":\"/api/maps/15/\",\"deleted\":\"2020-04-10T15:06:42.093731-04:00\"},{\"ref\":\"/api/components/1565/\",\"archivesspace_uri\":\"/repositories/2/resources/1644/\",\"deleted\":\"2020-04-10T15:06:42.085275-04:00\"},{\"ref\":\"/api/components/1564/\",\"deleted\":\"2020-04-10T15:06:42.077018-04:00\"},{\"ref\":\"/api/components/1563/\",\"deleted\":\"2020-04-10T15:06:42.068656-04:00\"},{\"ref\":\"/api/components/1562/\",\"deleted\":\"2020-04-10T15:06:42.060438-04:00\"},{\"ref\":\"/api/components/1561/\",\"deleted\":\"2020-04-10T15:06:42.052369-04:00\"},{\"ref\":\"/api/components/1560/\",\"deleted\":\"2020-04-10T15:06:42.043913-04:00\"},{\"ref\":\"/api/components/1559/\",\"deleted\":\"2020-04-10T15:06:42.035371-04:00\"},{\"ref\":\"/api/components/1558/\",\"deleted\":\"2020-04-10T15:06:42.026707-04:00\"},{\"ref\":\"/api/components/1557/\",\"deleted\":\"2020-04-10T15:06:42.017138-04:00\"},{\"ref\":\"/api/components/1556/\",\"deleted\":\"2020-04-10T15:06:42.007804-04:00\"},{\"ref\":\"/api/components/1555/\",\"deleted\":\"2020-04-10T15:06:41.998877-04:00\"},{\"ref\":\"/api/components/1554/\",\"deleted\":\"2020-04-10T15:06:41.989917-04:00\"},{\"ref\":\"/api/components/1553/\",\"deleted\":\"2020-04-10T15:06:41.978277-04:00\"}]}"
                }
            }
        }
    ]
}
